<svg width="25" height="25" viewBox="0 0 25 25" fill="none" xmlns="http://www.w3.org/2000/svg">
<path d="M17.7885 11.5385C17.7885 12.5844 17.4783 13.6069 16.8972 14.4766C16.3161 15.3463 15.4901 16.0241 14.5238 16.4244C13.5575 16.8246 12.4941 16.9294 11.4683 16.7253C10.4424 16.5212 9.5001 16.0176 8.7605 15.278C8.02089 14.5384 7.51722 13.596 7.31316 12.5702C7.1091 11.5443 7.21383 10.481 7.6141 9.51465C8.01437 8.54831 8.69221 7.72237 9.56189 7.14126C10.4316 6.56016 11.454 6.25 12.5 6.25C13.9021 6.25159 15.2463 6.80928 16.2378 7.80071C17.2292 8.79214 17.7869 10.1364 17.7885 11.5385ZM25 12.5C25 14.9723 24.2669 17.389 22.8934 19.4446C21.5199 21.5002 19.5676 23.1024 17.2835 24.0485C14.9995 24.9946 12.4861 25.2421 10.0614 24.7598C7.63661 24.2775 5.40933 23.087 3.66117 21.3388C1.91301 19.5907 0.722505 17.3634 0.24019 14.9386C-0.242126 12.5139 0.00541606 10.0005 0.951511 7.71645C1.89761 5.43238 3.49976 3.48015 5.55538 2.10663C7.61099 0.733112 10.0277 0 12.5 0C15.8141 0.00349978 18.9915 1.32158 21.335 3.66503C23.6784 6.00848 24.9965 9.18587 25 12.5ZM23.0769 12.5C23.0754 11.0764 22.7868 9.66765 22.2283 8.35812C21.6698 7.04859 20.853 5.86513 19.8267 4.87853C18.8004 3.89192 17.5856 3.12242 16.2551 2.61606C14.9245 2.1097 13.5055 1.87686 12.0829 1.93149C6.42188 2.15024 1.90746 6.86538 1.92308 12.53C1.92851 15.1088 2.8796 17.596 4.59616 19.5204C5.29522 18.5065 6.18323 17.6369 7.21154 16.9591C7.29922 16.9012 7.40345 16.8736 7.50829 16.8806C7.61313 16.8875 7.7128 16.9286 7.79207 16.9976C9.09878 18.1278 10.7687 18.7498 12.4964 18.7498C14.2241 18.7498 15.894 18.1278 17.2007 16.9976C17.28 16.9286 17.3797 16.8875 17.4845 16.8806C17.5893 16.8736 17.6936 16.9012 17.7813 16.9591C18.8109 17.6365 19.7001 18.5062 20.4002 19.5204C22.1253 17.589 23.0782 15.0896 23.0769 12.5Z" fill="#1D1D1D"/>
</svg>
